project/verilog/pixelTop_tb.vcd
$date
	Thu Nov 18 12:39:18 2021
$end
$version
	Icarus Verilog
$end
$timescale
	1ps
$end
$scope module pixelTop_tb $end
$var reg 1 ! clk $end
$var reg 1 " reset $end
$scope module pt $end
$var wire 1 # anaReset $end
$var wire 1 ! clk $end
$var wire 8 $ pixData [7:0] $end
$var wire 1 " reset $end
$var wire 1 % read4 $end
$var wire 1 & read3 $end
$var wire 1 ' read2 $end
$var wire 1 ( read1 $end
$var wire 1 ) expose $end
$var wire 1 * erase $end
$var wire 1 + convert $end
$var wire 1 , anaRamp $end
$var wire 1 - anaBias1 $end
$var reg 8 . data [7:0] $end
$var reg 8 / pixelDataOut1 [7:0] $end
$var reg 8 0 pixelDataOut2 [7:0] $end
$var reg 8 1 pixelDataOut3 [7:0] $end
$var reg 8 2 pixelDataOut4 [7:0] $end
$var integer 32 3 i [31:0] $end
$var integer 32 4 writefile [31:0] $end
$scope module pa1 $end
$var wire 8 5 DATA [7:0] $end
$var wire 1 , RAMP $end
$var wire 1 # RESET $end
$var wire 1 - VBN1 $end
$var wire 1 % READ4 $end
$var wire 1 & READ3 $end
$var wire 1 ' READ2 $end
$var wire 1 ( READ1 $end
$var wire 1 ) EXPOSE $end
$var wire 1 * ERASE $end
$scope module s1 $end
$var wire 8 6 DATA [7:0] $end
$var wire 1 , RAMP $end
$var wire 1 # RESET $end
$var wire 1 - VBN1 $end
$var wire 1 ( READ $end
$var wire 1 ) EXPOSE $end
$var wire 1 * ERASE $end
$var reg 1 7 cmp $end
$var reg 8 8 p_data [7:0] $end
$var real 1 9 adc $end
$var real 1 : lsb $end
$var real 1 ; tmp $end
$var real 1 < v_erase $end
$upscope $end
$scope module s2 $end
$var wire 8 = DATA [7:0] $end
$var wire 1 , RAMP $end
$var wire 1 # RESET $end
$var wire 1 - VBN1 $end
$var wire 1 ' READ $end
$var wire 1 ) EXPOSE $end
$var wire 1 * ERASE $end
$var reg 1 > cmp $end
$var reg 8 ? p_data [7:0] $end
$var real 1 @ adc $end
$var real 1 A lsb $end
$var real 1 B tmp $end
$var real 1 C v_erase $end
$upscope $end
$scope module s3 $end
$var wire 8 D DATA [7:0] $end
$var wire 1 , RAMP $end
$var wire 1 # RESET $end
$var wire 1 - VBN1 $end
$var wire 1 & READ $end
$var wire 1 ) EXPOSE $end
$var wire 1 * ERASE $end
$var reg 1 E cmp $end
$var reg 8 F p_data [7:0] $end
$var real 1 G adc $end
$var real 1 H lsb $end
$var real 1 I tmp $end
$var real 1 J v_erase $end
$upscope $end
$scope module s4 $end
$var wire 8 K DATA [7:0] $end
$var wire 1 , RAMP $end
$var wire 1 # RESET $end
$var wire 1 - VBN1 $end
$var wire 1 % READ $end
$var wire 1 ) EXPOSE $end
$var wire 1 * ERASE $end
$var reg 1 L cmp $end
$var reg 8 M p_data [7:0] $end
$var real 1 N adc $end
$var real 1 O lsb $end
$var real 1 P tmp $end
$var real 1 Q v_erase $end
$upscope $end
$upscope $end
$scope module pa_fsm $end
$var wire 1 ! clk $end
$var wire 1 " reset $end
$var reg 1 + convert $end
$var reg 1 R enable_counter $end
$var reg 1 * erase $end
$var reg 1 ) expose $end
$var reg 8 S gray_counter [7:0] $end
$var reg 3 T next_state [2:0] $end
$var reg 8 U q [7:0] $end
$var reg 1 ( read1 $end
$var reg 1 ' read2 $end
$var reg 1 & read3 $end
$var reg 1 % read4 $end
$var reg 1 V reset_c $end
$var reg 3 W state [2:0] $end
$upscope $end
$upscope $end
$upscope $end
$enddefinitions $end
#500000
$dumpvars
b0 W
1V
b0 U
b0 T
b0 S
1R
r1.2 Q
r0 P
r0.004705882352941176 O
r0.004705882352941176 N
bx M
1L
bx K
r1.2 J
r0 I
r0.004705882352941176 H
r0.004705882352941176 G
bx F
1E
bx D
r1.2 C
r0 B
r0.004705882352941176 A
r0.004705882352941176 @
bx ?
1>
bx =
r1.2 <
r0 ;
r0.004705882352941176 :
r0.004705882352941176 9
bx 8
17
bx 6
bx 5
b10000000000000000000000000000011 4
b11111111111111111111111111111111 3
b0 2
b0 1
b0 0
b0 /
b0 .
x-
x,
x+
x*
x)
x(
x'
x&
x%
bx $
1#
0"
1!
$end
#1000000
b0 $
b0 5
b0 6
b0 =
b0 D
b0 K
r0 N
0L
b0 M
r1.2 P
r0 G
0E
b0 F
r1.2 I
r0 @
0>
b0 ?
r1.2 B
r0 9
07
b0 8
r1.2 ;
0+
0)
0%
0&
0'
0(
1*
0,
0-
0!
#1500000
0V
b11111111111111111111111111111111 3
1!
#2000000
0!
#2500000
b1 U
b11111111111111111111111111111111 3
1!
#3000000
0!
#3500000
b1 S
b10 U
b11111111111111111111111111111111 3
1!
#4000000
0!
#4500000
b11 S
b11 U
b11111111111111111111111111111111 3
1!
#5000000
0!
#5500000
b10 S
b100 U
b11111111111111111111111111111111 3
1!
#6000000
0!
#6500000
b110 S
b101 U
b11111111111111111111111111111111 3
1!
#7000000
0!
#7500000
b111 S
b110 U
b11111111111111111111111111111111 3
1!
#8000000
0!
#8500000
b101 S
b111 U
b11111111111111111111111111111111 3
1!
#9000000
0!
#9500000
b111 W
b1 T
b100 S
b1000 U
b11111111111111111111111111111111 3
1!
#10000000
0*
0!
#10500000
b1 W
b1100 S
b0 U
b11111111111111111111111111111111 3
1V
1!
#11000000
1)
0!
#11500000
b0 S
r1.195294117647059 P
r1.195764705882353 I
r1.196705882352941 B
r1.197647058823529 ;
1-
0V
b11111111111111111111111111111111 3
1!
#12000000
0-
0!
#12500000
b1 U
r1.195294117647059 ;
r1.193411764705882 B
r1.191529411764706 I
r1.190588235294118 P
1-
b11111111111111111111111111111111 3
1!
#13000000
0-
0!
#13500000
b1 S
b10 U
r1.185882352941177 P
r1.187294117647059 I
r1.190117647058823 B
r1.192941176470588 ;
1-
b11111111111111111111111111111111 3
1!
#14000000
0-
0!
#14500000
b11 S
b11 U
r1.190588235294117 ;
r1.186823529411764 B
r1.183058823529411 I
r1.181176470588235 P
1-
b11111111111111111111111111111111 3
1!
#15000000
0-
0!
#15500000
b10 S
b100 U
r1.176470588235294 P
r1.178823529411764 I
r1.183529411764705 B
r1.188235294117647 ;
1-
b11111111111111111111111111111111 3
1!
#16000000
0-
0!
#16500000
b110 S
b101 U
r1.185882352941176 ;
r1.180235294117647 B
r1.174588235294117 I
r1.171764705882353 P
1-
b11111111111111111111111111111111 3
1!
#17000000
0-
0!
#17500000
b111 S
b110 U
r1.167058823529412 P
r1.17035294117647 I
r1.176941176470588 B
r1.183529411764705 ;
1-
b11111111111111111111111111111111 3
1!
#18000000
0-
0!
#18500000
b101 S
b111 U
r1.181176470588235 ;
r1.173647058823529 B
r1.166117647058823 I
r1.162352941176471 P
1-
b11111111111111111111111111111111 3
1!
#19000000
0-
0!
#19500000
b100 S
b1000 U
r1.15764705882353 P
r1.161882352941176 I
r1.17035294117647 B
r1.178823529411764 ;
1-
b11111111111111111111111111111111 3
1!
#20000000
0-
0!
#20500000
b1100 S
b1001 U
r1.176470588235293 ;
r1.167058823529411 B
r1.157647058823529 I
r1.152941176470589 P
1-
b11111111111111111111111111111111 3
1!
#21000000
0-
0!
#21500000
b1101 S
b1010 U
r1.148235294117648 P
r1.153411764705882 I
r1.163764705882352 B
r1.174117647058823 ;
1-
b11111111111111111111111111111111 3
1!
#22000000
0-
0!
#22500000
b1111 S
b1011 U
r1.171764705882352 ;
r1.160470588235293 B
r1.149176470588235 I
r1.143529411764707 P
1-
b11111111111111111111111111111111 3
1!
#23000000
0-
0!
#23500000
b1110 S
b1100 U
r1.138823529411765 P
r1.144941176470587 I
r1.157176470588234 B
r1.169411764705881 ;
1-
b11111111111111111111111111111111 3
1!
#24000000
0-
0!
#24500000
b1010 S
b1101 U
r1.167058823529411 ;
r1.153882352941175 B
r1.14070588235294 I
r1.134117647058824 P
1-
b11111111111111111111111111111111 3
1!
#25000000
0-
0!
#25500000
b1011 S
b1110 U
r1.129411764705883 P
r1.136470588235293 I
r1.150588235294117 B
r1.16470588235294 ;
1-
b11111111111111111111111111111111 3
1!
#26000000
0-
0!
#26500000
b1001 S
b1111 U
r1.162352941176469 ;
r1.147294117647058 B
r1.132235294117646 I
r1.124705882352942 P
1-
b11111111111111111111111111111111 3
1!
#27000000
0-
0!
#27500000
b1000 S
b10000 U
r1.120000000000001 P
r1.127999999999999 I
r1.143999999999999 B
r1.159999999999999 ;
1-
b11111111111111111111111111111111 3
1!
#28000000
0-
0!
#28500000
b11000 S
b10001 U
r1.157647058823528 ;
r1.14070588235294 B
r1.123764705882352 I
r1.11529411764706 P
1-
b11111111111111111111111111111111 3
1!
#29000000
0-
0!
#29500000
b11001 S
b10010 U
r1.110588235294119 P
r1.119529411764705 I
r1.137411764705881 B
r1.155294117647057 ;
1-
b11111111111111111111111111111111 3
1!
#30000000
0-
0!
#30500000
b11011 S
b10011 U
r1.152941176470587 ;
r1.134117647058822 B
r1.115294117647058 I
r1.105882352941178 P
1-
b11111111111111111111111111111111 3
1!
#31000000
0-
0!
#31500000
b11010 S
b10100 U
r1.101176470588237 P
r1.111058823529411 I
r1.130823529411763 B
r1.150588235294116 ;
1-
b11111111111111111111111111111111 3
1!
#32000000
0-
0!
#32500000
b11110 S
b10101 U
r1.148235294117645 ;
r1.127529411764704 B
r1.106823529411763 I
r1.096470588235295 P
1-
b11111111111111111111111111111111 3
1!
#33000000
0-
0!
#33500000
b11111 S
b10110 U
r1.091764705882354 P
r1.102588235294116 I
r1.124235294117645 B
r1.145882352941175 ;
1-
b11111111111111111111111111111111 3
1!
#34000000
0-
0!
#34500000
b11101 S
b10111 U
r1.143529411764704 ;
r1.120941176470587 B
r1.098352941176469 I
r1.087058823529413 P
1-
b11111111111111111111111111111111 3
1!
#35000000
0-
0!
#35500000
b11100 S
b11000 U
r1.082352941176472 P
r1.094117647058822 I
r1.117647058823528 B
r1.141176470588233 ;
1-
b11111111111111111111111111111111 3
1!
#36000000
0-
0!
#36500000
b10100 S
b11001 U
r1.138823529411763 ;
r1.114352941176469 B
r1.089882352941175 I
r1.077647058823531 P
1-
b11111111111111111111111111111111 3
1!
#37000000
0-
0!
#37500000
b10101 S
b11010 U
r1.07294117647059 P
r1.085647058823528 I
r1.11105882352941 B
r1.136470588235292 ;
1-
b11111111111111111111111111111111 3
1!
#38000000
0-
0!
#38500000
b10111 S
b11011 U
r1.134117647058821 ;
r1.107764705882351 B
r1.081411764705881 I
r1.068235294117649 P
1-
b11111111111111111111111111111111 3
1!
#39000000
0-
0!
#39500000
b10110 S
b11100 U
r1.063529411764708 P
r1.077176470588234 I
r1.104470588235292 B
r1.131764705882351 ;
1-
b11111111111111111111111111111111 3
1!
#40000000
0-
0!
#40500000
b10010 S
b11101 U
r1.12941176470588 ;
r1.101176470588233 B
r1.072941176470587 I
r1.058823529411766 P
1-
b11111111111111111111111111111111 3
1!
#41000000
0-
0!
#41500000
b10011 S
b11110 U
r1.054117647058825 P
r1.068705882352939 I
r1.097882352941174 B
r1.127058823529409 ;
1-
b11111111111111111111111111111111 3
1!
#42000000
0-
0!
#42500000
b10001 S
b11111 U
r1.124705882352939 ;
r1.094588235294115 B
r1.064470588235292 I
r1.049411764705884 P
1-
b11111111111111111111111111111111 3
1!
#43000000
0-
0!
#43500000
b10000 S
b100000 U
r1.044705882352943 P
r1.060235294117645 I
r1.091294117647057 B
r1.122352941176468 ;
1-
b11111111111111111111111111111111 3
1!
#44000000
0-
0!
#44500000
b110000 S
b100001 U
r1.119999999999997 ;
r1.087999999999998 B
r1.055999999999998 I
r1.040000000000002 P
1-
b11111111111111111111111111111111 3
1!
#45000000
0-
0!
#45500000
b110001 S
b100010 U
r1.035294117647061 P
r1.051764705882351 I
r1.084705882352939 B
r1.117647058823527 ;
1-
b11111111111111111111111111111111 3
1!
#46000000
0-
0!
#46500000
b110011 S
b100011 U
r1.115294117647056 ;
r1.08141176470588 B
r1.047529411764704 I
r1.03058823529412 P
1-
b11111111111111111111111111111111 3
1!
#47000000
0-
0!
#47500000
b110010 S
b100100 U
r1.025882352941179 P
r1.043294117647057 I
r1.078117647058821 B
r1.112941176470585 ;
1-
b11111111111111111111111111111111 3
1!
#48000000
0-
0!
#48500000
b110110 S
b100101 U
r1.110588235294115 ;
r1.074823529411762 B
r1.03905882352941 I
r1.021176470588238 P
1-
b11111111111111111111111111111111 3
1!
#49000000
0-
0!
#49500000
b110111 S
b100110 U
r1.016470588235296 P
r1.034823529411762 I
r1.071529411764703 B
r1.108235294117644 ;
1-
b11111111111111111111111111111111 3
1!
#50000000
0-
0!
#50500000
b110101 S
b100111 U
r1.105882352941173 ;
r1.068235294117644 B
r1.030588235294115 I
r1.011764705882355 P
1-
b11111111111111111111111111111111 3
1!
#51000000
0-
0!
#51500000
b110100 S
b101000 U
r1.007058823529414 P
r1.026352941176468 I
r1.064941176470585 B
r1.103529411764703 ;
1-
b11111111111111111111111111111111 3
1!
#52000000
0-
0!
#52500000
b111100 S
b101001 U
r1.101176470588232 ;
r1.061647058823527 B
r1.022117647058821 I
r1.002352941176473 P
1-
b11111111111111111111111111111111 3
1!
#53000000
0-
0!
#53500000
b111101 S
b101010 U
r0.9976470588235319 P
r1.017882352941174 I
r1.058352941176468 B
r1.098823529411761 ;
1-
b11111111111111111111111111111111 3
1!
#54000000
0-
0!
#54500000
b111111 S
b101011 U
r1.096470588235291 ;
r1.055058823529409 B
r1.013647058823527 I
r0.9929411764705907 P
1-
b11111111111111111111111111111111 3
1!
#55000000
0-
0!
#55500000
b111110 S
b101100 U
r0.9882352941176494 P
r1.00941176470588 I
r1.05176470588235 B
r1.09411764705882 ;
1-
b11111111111111111111111111111111 3
1!
#56000000
0-
0!
#56500000
b111010 S
b101101 U
r1.091764705882349 ;
r1.048470588235291 B
r1.005176470588233 I
r0.9835294117647082 P
1-
b11111111111111111111111111111111 3
1!
#57000000
0-
0!
#57500000
b111011 S
b101110 U
r0.978823529411767 P
r1.000941176470586 I
r1.045176470588232 B
r1.089411764705879 ;
1-
b11111111111111111111111111111111 3
1!
#58000000
0-
0!
#58500000
b111001 S
b101111 U
r1.087058823529408 ;
r1.041882352941173 B
r0.9967058823529386 I
r0.9741176470588258 P
1-
b11111111111111111111111111111111 3
1!
#59000000
0-
0!
#59500000
b111000 S
b110000 U
r0.9694117647058845 P
r0.9924705882352916 I
r1.038588235294114 B
r1.084705882352937 ;
1-
b11111111111111111111111111111111 3
1!
#60000000
0-
0!
#60500000
b101000 S
b110001 U
r1.082352941176467 ;
r1.035294117647055 B
r0.9882352941176445 I
r0.9647058823529433 P
1-
b11111111111111111111111111111111 3
1!
#61000000
0-
0!
#61500000
b101001 S
b110010 U
r0.9600000000000021 P
r0.9839999999999975 I
r1.031999999999996 B
r1.079999999999996 ;
1-
b11111111111111111111111111111111 3
1!
#62000000
0-
0!
#62500000
b101011 S
b110011 U
r1.077647058823525 ;
r1.028705882352938 B
r0.9797647058823505 I
r0.9552941176470608 P
1-
b11111111111111111111111111111111 3
1!
#63000000
0-
0!
#63500000
b101010 S
b110100 U
r0.9505882352941196 P
r0.9755294117647035 I
r1.025411764705879 B
r1.075294117647055 ;
1-
b11111111111111111111111111111111 3
1!
#64000000
0-
0!
#64500000
b101110 S
b110101 U
r1.072941176470584 ;
r1.02211764705882 B
r0.9712941176470565 I
r0.9458823529411784 P
1-
b11111111111111111111111111111111 3
1!
#65000000
0-
0!
#65500000
b101111 S
b110110 U
r0.9411764705882372 P
r0.9670588235294095 I
r1.018823529411761 B
r1.070588235294113 ;
1-
b11111111111111111111111111111111 3
1!
#66000000
0-
0!
#66500000
b101101 S
b110111 U
r1.068235294117643 ;
r1.015529411764702 B
r0.9628235294117625 I
r0.9364705882352959 P
1-
b11111111111111111111111111111111 3
1!
#67000000
0-
0!
#67500000
b101100 S
b111000 U
r0.9317647058823547 P
r0.9585882352941155 I
r1.012235294117643 B
r1.065882352941172 ;
1-
b11111111111111111111111111111111 3
1!
#68000000
0-
0!
#68500000
b100100 S
b111001 U
r1.063529411764701 ;
r1.008941176470584 B
r0.9543529411764685 I
r0.9270588235294135 P
1-
b11111111111111111111111111111111 3
1!
#69000000
0-
0!
#69500000
b100101 S
b111010 U
r0.9223529411764723 P
r0.9501176470588215 I
r1.005647058823525 B
r1.061176470588231 ;
1-
b11111111111111111111111111111111 3
1!
#70000000
0-
0!
#70500000
b100111 S
b111011 U
r1.05882352941176 ;
r1.002352941176466 B
r0.9458823529411745 I
r0.917647058823531 P
1-
b11111111111111111111111111111111 3
1!
#71000000
0-
0!
#71500000
b100110 S
b111100 U
r0.9129411764705898 P
r0.9416470588235275 I
r0.9990588235294077 B
r1.056470588235289 ;
1-
b11111111111111111111111111111111 3
1!
#72000000
0-
0!
#72500000
b100010 S
b111101 U
r1.054117647058818 ;
r0.9957647058823489 B
r0.9374117647058805 I
r0.9082352941176486 P
1-
b11111111111111111111111111111111 3
1!
#73000000
0-
0!
#73500000
b100011 S
b111110 U
r0.9035294117647074 P
r0.9331764705882335 I
r0.9924705882352901 B
r1.051764705882348 ;
1-
b11111111111111111111111111111111 3
1!
#74000000
0-
0!
#74500000
b100001 S
b111111 U
r1.049411764705877 ;
r0.9891764705882313 B
r0.9289411764705865 I
r0.8988235294117661 P
1-
b11111111111111111111111111111111 3
1!
#75000000
0-
0!
#75500000
b100000 S
b1000000 U
r0.8941176470588249 P
r0.9247058823529395 I
r0.9858823529411725 B
r1.047058823529406 ;
1-
b11111111111111111111111111111111 3
1!
#76000000
0-
0!
#76500000
b1100000 S
b1000001 U
r1.044705882352936 ;
r0.9825882352941138 B
r0.9204705882352925 I
r0.8894117647058837 P
1-
b11111111111111111111111111111111 3
1!
#77000000
0-
0!
#77500000
b1100001 S
b1000010 U
r0.8847058823529425 P
r0.9162352941176455 I
r0.979294117647055 B
r1.042352941176465 ;
1-
b11111111111111111111111111111111 3
1!
#78000000
0-
0!
#78500000
b1100011 S
b1000011 U
r1.039999999999994 ;
r0.9759999999999962 B
r0.9119999999999985 I
r0.8800000000000012 P
1-
b11111111111111111111111111111111 3
1!
#79000000
0-
0!
#79500000
b1100010 S
b1000100 U
r0.87529411764706 P
r0.9077647058823515 I
r0.9727058823529374 B
r1.037647058823524 ;
1-
b11111111111111111111111111111111 3
1!
#80000000
0-
0!
#80500000
b1100110 S
b1000101 U
r1.035294117647053 ;
r0.9694117647058786 B
r0.9035294117647045 I
r0.8705882352941188 P
1-
b11111111111111111111111111111111 3
1!
#81000000
0-
0!
#81500000
b1100111 S
b1000110 U
r0.8658823529411775 P
r0.8992941176470575 I
r0.9661176470588199 B
r1.032941176470582 ;
1-
b11111111111111111111111111111111 3
1!
#82000000
0-
0!
#82500000
b1100101 S
b1000111 U
r1.030588235294112 ;
r0.9628235294117611 B
r0.8950588235294105 I
r0.8611764705882363 P
1-
b11111111111111111111111111111111 3
1!
#83000000
0-
0!
#83500000
b1100100 S
b1001000 U
r0.8564705882352951 P
r0.8908235294117635 I
r0.9595294117647023 B
r1.028235294117641 ;
1-
b11111111111111111111111111111111 3
1!
#84000000
0-
0!
#84500000
b1101100 S
b1001001 U
r1.02588235294117 ;
r0.9562352941176435 B
r0.8865882352941165 I
r0.8517647058823539 P
1-
b11111111111111111111111111111111 3
1!
#85000000
0-
0!
#85500000
b1101101 S
b1001010 U
r0.8470588235294126 P
r0.8823529411764695 I
r0.9529411764705847 B
r1.0235294117647 ;
1-
b11111111111111111111111111111111 3
1!
#86000000
0-
0!
#86500000
b1101111 S
b1001011 U
r1.021176470588229 ;
r0.949647058823526 B
r0.8781176470588224 I
r0.8423529411764714 P
1-
b11111111111111111111111111111111 3
1!
#87000000
0-
0!
#87500000
b1101110 S
b1001100 U
r0.8376470588235302 P
r0.8738823529411754 I
r0.9463529411764672 B
r1.018823529411758 ;
1-
b11111111111111111111111111111111 3
1!
#88000000
0-
0!
#88500000
b1101010 S
b1001101 U
r1.016470588235288 ;
r0.9430588235294084 B
r0.8696470588235284 I
r0.832941176470589 P
1-
b11111111111111111111111111111111 3
1!
#89000000
0-
0!
#89500000
b1101011 S
b1001110 U
r0.8282352941176477 P
r0.8654117647058814 I
r0.9397647058823496 B
r1.014117647058817 ;
1-
b11111111111111111111111111111111 3
1!
#90000000
0-
0!
#90500000
b1101001 S
b1001111 U
r1.011764705882346 ;
r0.9364705882352908 B
r0.8611764705882344 I
r0.8235294117647065 P
1-
b11111111111111111111111111111111 3
1!
#91000000
0-
0!
#91500000
b1101000 S
b1010000 U
r0.8188235294117653 P
r0.8569411764705874 I
r0.9331764705882321 B
r1.009411764705876 ;
1-
b11111111111111111111111111111111 3
1!
#92000000
0-
0!
#92500000
b1111000 S
b1010001 U
r1.007058823529405 ;
r0.9298823529411733 B
r0.8527058823529404 I
r0.8141176470588241 P
1-
b11111111111111111111111111111111 3
1!
#93000000
0-
0!
#93500000
b1111001 S
b1010010 U
r0.8094117647058828 P
r0.8484705882352934 I
r0.9265882352941145 B
r1.004705882352934 ;
1-
b11111111111111111111111111111111 3
1!
#94000000
0-
0!
#94500000
b1111011 S
b1010011 U
r1.002352941176464 ;
r0.9232941176470557 B
r0.8442352941176464 I
r0.8047058823529416 P
1-
b11111111111111111111111111111111 3
1!
#95000000
0-
0!
#95500000
b1111010 S
b1010100 U
r0.8000000000000004 P
r0.8399999999999994 I
r0.9199999999999969 B
r0.9999999999999932 ;
1-
b11111111111111111111111111111111 3
1!
#96000000
0-
0!
#96500000
b1111110 S
b1010101 U
r0.9976470588235227 ;
r0.9167058823529382 B
r0.8357647058823524 I
r0.7952941176470592 P
1-
b11111111111111111111111111111111 3
1!
#97000000
0-
0!
#97500000
b1111111 S
b1010110 U
r0.7905882352941179 P
r0.8315294117647054 I
r0.9134117647058794 B
r0.9952941176470521 ;
1-
b11111111111111111111111111111111 3
1!
#98000000
0-
0!
#98500000
b1111101 S
b1010111 U
r0.9929411764705816 ;
r0.9101176470588206 B
r0.8272941176470584 I
r0.7858823529411767 P
1-
b11111111111111111111111111111111 3
1!
#99000000
0-
0!
#99500000
b1111100 S
b1011000 U
r0.7811764705882355 P
r0.8230588235294114 I
r0.9068235294117618 B
r0.990588235294111 ;
1-
b11111111111111111111111111111111 3
1!
#100000000
0-
0!
#100500000
b1110100 S
b1011001 U
r0.9882352941176404 ;
r0.903529411764703 B
r0.8188235294117644 I
r0.7764705882352942 P
1-
b11111111111111111111111111111111 3
1!
#101000000
0-
0!
#101500000
b1110101 S
b1011010 U
r0.771764705882353 P
r0.8145882352941174 I
r0.9002352941176442 B
r0.9858823529411699 ;
1-
b11111111111111111111111111111111 3
1!
#102000000
0-
0!
#102500000
b1110111 S
b1011011 U
r0.9835294117646993 ;
r0.8969411764705855 B
r0.8103529411764704 I
r0.7670588235294118 P
1-
b11111111111111111111111111111111 3
1!
#103000000
0-
0!
#103500000
b1110110 S
b1011100 U
r0.7623529411764706 P
r0.8061176470588234 I
r0.8936470588235267 B
r0.9811764705882288 ;
1-
b11111111111111111111111111111111 3
1!
#104000000
0-
0!
#104500000
b1110010 S
b1011101 U
r0.9788235294117582 ;
r0.8903529411764679 B
r0.8018823529411764 I
r0.7576470588235293 P
1-
b11111111111111111111111111111111 3
1!
#105000000
0-
0!
#105500000
b1110011 S
b1011110 U
r0.7529411764705881 P
r0.7976470588235294 I
r0.8870588235294091 B
r0.9764705882352877 ;
1-
b11111111111111111111111111111111 3
1!
#106000000
0-
0!
#106500000
b1110001 S
b1011111 U
r0.9741176470588171 ;
r0.8837647058823503 B
r0.7934117647058824 I
r0.7482352941176469 P
1-
b11111111111111111111111111111111 3
1!
#107000000
0-
0!
#107500000
b1110000 S
b1100000 U
r0.7435294117647057 P
r0.7891764705882354 I
r0.8804705882352916 B
r0.9717647058823465 ;
1-
b11111111111111111111111111111111 3
1!
#108000000
0-
0!
#108500000
b1010000 S
b1100001 U
r0.969411764705876 ;
r0.8771764705882328 B
r0.7849411764705884 I
r0.7388235294117644 P
1-
b11111111111111111111111111111111 3
1!
#109000000
0-
0!
#109500000
b1010001 S
b1100010 U
r0.7341176470588232 P
r0.7807058823529414 I
r0.873882352941174 B
r0.9670588235294054 ;
1-
b11111111111111111111111111111111 3
1!
#110000000
0-
0!
#110500000
b1010011 S
b1100011 U
r0.9647058823529349 ;
r0.8705882352941152 B
r0.7764705882352944 I
r0.729411764705882 P
1-
b11111111111111111111111111111111 3
1!
#111000000
0-
0!
#111500000
b1010010 S
b1100100 U
r0.7247058823529408 P
r0.7722352941176474 I
r0.8672941176470564 B
r0.9623529411764643 ;
1-
b11111111111111111111111111111111 3
1!
#112000000
0-
0!
#112500000
b1010110 S
b1100101 U
r0.9599999999999937 ;
r0.8639999999999977 B
r0.7680000000000003 I
r0.7199999999999995 P
1-
b11111111111111111111111111111111 3
1!
#113000000
0-
0!
#113500000
b1010111 S
b1100110 U
r0.7152941176470583 P
r0.7637647058823533 I
r0.8607058823529389 B
r0.9576470588235232 ;
1-
b11111111111111111111111111111111 3
1!
#114000000
0-
0!
#114500000
b1010101 S
b1100111 U
r0.9552941176470526 ;
r0.8574117647058801 B
r0.7595294117647063 I
r0.7105882352941171 P
1-
b11111111111111111111111111111111 3
1!
#115000000
0-
0!
#115500000
b1010100 S
b1101000 U
r0.7058823529411759 P
r0.7552941176470593 I
r0.8541176470588213 B
r0.9529411764705821 ;
1-
b11111111111111111111111111111111 3
1!
#116000000
0-
0!
#116500000
b1011100 S
b1101001 U
r0.9505882352941115 ;
r0.8508235294117625 B
r0.7510588235294123 I
r0.7011764705882346 P
1-
b11111111111111111111111111111111 3
1!
#117000000
0-
0!
#117500000
b1011101 S
b1101010 U
r0.6964705882352934 P
r0.7468235294117653 I
r0.8475294117647038 B
r0.948235294117641 ;
1-
b11111111111111111111111111111111 3
1!
#118000000
0-
0!
#118500000
b1011111 S
b1101011 U
r0.9458823529411704 ;
r0.844235294117645 B
r0.7425882352941183 I
r0.6917647058823522 P
1-
b11111111111111111111111111111111 3
1!
#119000000
0-
0!
#119500000
b1011110 S
b1101100 U
r0.6870588235294109 P
r0.7383529411764713 I
r0.8409411764705862 B
r0.9435294117646998 ;
1-
b11111111111111111111111111111111 3
1!
#120000000
0-
0!
#120500000
b1011010 S
b1101101 U
r0.9411764705882293 ;
r0.8376470588235274 B
r0.7341176470588243 I
r0.6823529411764697 P
1-
b11111111111111111111111111111111 3
1!
#121000000
0-
0!
#121500000
b1011011 S
b1101110 U
r0.6776470588235285 P
r0.7298823529411773 I
r0.8343529411764686 B
r0.9388235294117587 ;
1-
b11111111111111111111111111111111 3
1!
#122000000
0-
0!
#122500000
b1011001 S
b1101111 U
r0.9364705882352882 ;
r0.8310588235294099 B
r0.7256470588235303 I
r0.6729411764705873 P
1-
b11111111111111111111111111111111 3
1!
#123000000
0-
0!
#123500000
b1011000 S
b1110000 U
r0.668235294117646 P
r0.7214117647058833 I
r0.8277647058823511 B
r0.9341176470588176 ;
1-
b11111111111111111111111111111111 3
1!
#124000000
0-
0!
#124500000
b1001000 S
b1110001 U
r0.9317647058823471 ;
r0.8244705882352923 B
r0.7171764705882363 I
r0.6635294117647048 P
1-
b11111111111111111111111111111111 3
1!
#125000000
0-
0!
#125500000
b1001001 S
b1110010 U
r0.6588235294117636 P
r0.7129411764705893 I
r0.8211764705882335 B
r0.9294117647058765 ;
1-
b11111111111111111111111111111111 3
1!
#126000000
0-
0!
#126500000
b1001011 S
b1110011 U
r0.9270588235294059 ;
r0.8178823529411747 B
r0.7087058823529423 I
r0.6541176470588224 P
1-
b11111111111111111111111111111111 3
1!
#127000000
0-
0!
#127500000
b1001010 S
b1110100 U
r0.6494117647058811 P
r0.7044705882352953 I
r0.8145882352941159 B
r0.9247058823529354 ;
1-
b11111111111111111111111111111111 3
1!
#128000000
0-
0!
#128500000
b1001110 S
b1110101 U
r0.9223529411764648 ;
r0.8112941176470572 B
r0.7002352941176483 I
r0.6447058823529399 P
1-
b11111111111111111111111111111111 3
1!
#129000000
0-
0!
#129500000
b1001111 S
b1110110 U
r0.6399999999999987 P
r0.6960000000000013 I
r0.8079999999999984 B
r0.9199999999999943 ;
1-
b11111111111111111111111111111111 3
1!
#130000000
0-
0!
#130500000
b1001101 S
b1110111 U
r0.9176470588235237 ;
r0.8047058823529396 B
r0.6917647058823543 I
r0.6352941176470575 P
1-
b11111111111111111111111111111111 3
1!
#131000000
0-
0!
#131500000
b1001100 S
b1111000 U
r0.6305882352941162 P
r0.6875294117647073 I
r0.8014117647058808 B
r0.9152941176470532 ;
1-
b11111111111111111111111111111111 3
1!
#132000000
0-
0!
#132500000
b1000100 S
b1111001 U
r0.9129411764705826 ;
r0.798117647058822 B
r0.6832941176470603 I
r0.625882352941175 P
1-
b11111111111111111111111111111111 3
1!
#133000000
0-
0!
#133500000
b1000101 S
b1111010 U
r0.6211764705882338 P
r0.6790588235294133 I
r0.7948235294117633 B
r0.910588235294112 ;
1-
b11111111111111111111111111111111 3
1!
#134000000
0-
0!
#134500000
b1000111 S
b1111011 U
r0.9082352941176415 ;
r0.7915294117647045 B
r0.6748235294117663 I
r0.6164705882352925 P
1-
b11111111111111111111111111111111 3
1!
#135000000
0-
0!
#135500000
b1000110 S
b1111100 U
r0.6117647058823513 P
r0.6705882352941193 I
r0.7882352941176457 B
r0.9058823529411709 ;
1-
b11111111111111111111111111111111 3
1!
#136000000
0-
0!
#136500000
b1000010 S
b1111101 U
r0.9035294117647004 ;
r0.7849411764705869 B
r0.6663529411764723 I
r0.6070588235294101 P
1-
b11111111111111111111111111111111 3
1!
#137000000
0-
0!
#137500000
b1000011 S
b1111110 U
r0.6023529411764689 P
r0.6621176470588253 I
r0.7816470588235281 B
r0.9011764705882298 ;
1-
b11111111111111111111111111111111 3
1!
#138000000
0-
0!
